{
    "apiConfigs": [
        {
            "id": "ms-local-commons",
            "methods": [
                "POST",
                "GET"
            ],
            "strip": true,
            "preserve": true
        }
    ],
    "ingresses": [
      {
        "apiConfigId":"ms-local-commons",
        "class":"kongapi",
        "paths": [
          {
            "route": "/ms-local-commons",
            "host": "api-v3-dev.culqi.xyz",
            "port": 3000
          }
        ]
      }]
}
